%
G21
G90
G1 Z4.000 F228.6
G0 X106.870 Y366.905
G1 Z-3.100 F150.0
G1 X107.224 Y367.259 F500.0
G1 X107.412 Y367.712 F500.0
G1 X107.412 Y368.209 F500.0
G1 X107.224 Y368.662 F500.0
G1 X106.869 Y369.017 F500.0
G1 X106.415 Y369.205 F500.0
G1 X105.917 Y369.205 F500.0
G1 X105.466 Y369.019 F500.0
G1 X105.109 Y368.662 F500.0
G1 X104.922 Y368.209 F500.0
G1 X104.922 Y367.712 F500.0
G1 X105.109 Y367.259 F500.0
G1 X105.463 Y366.905 F500.0
G1 X105.921 Y366.716 F500.0
G1 X106.413 Y366.716 F500.0
G1 X106.870 Y366.905 F500.0
G1 X106.652 Y365.516 F500.0
G1 X107.550 Y365.887 F500.0
G1 X108.241 Y366.578 F500.0
G1 X108.612 Y367.474 F500.0
G1 X108.612 Y368.447 F500.0
G1 X108.241 Y369.343 F500.0
G1 X107.549 Y370.035 F500.0
G1 X106.655 Y370.405 F500.0
G1 X105.680 Y370.405 F500.0
G1 X104.784 Y370.035 F500.0
G1 X104.093 Y369.343 F500.0
G1 X103.722 Y368.447 F500.0
G1 X103.722 Y367.474 F500.0
G1 X104.093 Y366.578 F500.0
G1 X104.784 Y365.887 F500.0
G1 X105.681 Y365.516 F500.0
G1 X106.652 Y365.516 F500.0
G1 X106.870 Y366.905 F500.0
G1 Z-6.200 F150.0
G1 X107.224 Y367.259 F500.0
G1 X107.412 Y367.712 F500.0
G1 X107.412 Y368.209 F500.0
G1 X107.224 Y368.662 F500.0
G1 X106.869 Y369.017 F500.0
G1 X106.415 Y369.205 F500.0
G1 X105.917 Y369.205 F500.0
G1 X105.466 Y369.019 F500.0
G1 X105.109 Y368.662 F500.0
G1 X104.922 Y368.209 F500.0
G1 X104.922 Y367.712 F500.0
G1 X105.109 Y367.259 F500.0
G1 X105.463 Y366.905 F500.0
G1 X105.921 Y366.716 F500.0
G1 X106.413 Y366.716 F500.0
G1 X106.870 Y366.905 F500.0
G1 X106.652 Y365.516 F500.0
G1 X107.550 Y365.887 F500.0
G1 X108.241 Y366.578 F500.0
G1 X108.612 Y367.474 F500.0
G1 X108.612 Y368.447 F500.0
G1 X108.241 Y369.343 F500.0
G1 X107.549 Y370.035 F500.0
G1 X106.655 Y370.405 F500.0
G1 X105.680 Y370.405 F500.0
G1 X104.784 Y370.035 F500.0
G1 X104.093 Y369.343 F500.0
G1 X103.722 Y368.447 F500.0
G1 X103.722 Y367.474 F500.0
G1 X104.093 Y366.578 F500.0
G1 X104.784 Y365.887 F500.0
G1 X105.681 Y365.516 F500.0
G1 X106.652 Y365.516 F500.0
G1 Z4.000 F150.0
G0 X117.326 Y327.128
G1 Z-3.100 F150.0
G1 X117.706 Y327.189 F500.0
G1 X118.358 Y327.586 F500.0
G1 X118.731 Y328.252 F500.0
G1 X118.783 Y334.505 F500.0
G1 X119.022 Y333.807 F500.0
G1 X119.589 Y333.295 F500.0
G1 X119.950 Y333.164 F500.0
G1 X139.881 Y333.177 F500.0
G1 X140.238 Y333.322 F500.0
G1 X140.785 Y333.854 F500.0
G1 X140.999 Y334.587 F500.0
G1 X140.972 Y354.137 F500.0
G1 X140.640 Y354.824 F500.0
G1 X139.828 Y355.313 F500.0
G1 X145.795 Y355.379 F500.0
G1 X146.480 Y355.715 F500.0
G1 X146.912 Y356.344 F500.0
G1 X146.994 Y356.719 F500.0
G1 X146.990 Y364.019 F500.0
G1 X146.985 Y372.019 F500.0
G1 X146.980 Y379.312 F500.0
G1 X146.671 Y380.009 F500.0
G1 X146.058 Y380.464 F500.0
G1 X145.686 Y380.560 F500.0
G1 X139.832 Y380.609 F500.0
G1 X140.508 Y380.961 F500.0
G1 X140.758 Y381.254 F500.0
G1 X140.997 Y381.978 F500.0
G1 X140.981 Y401.534 F500.0
G1 X140.671 Y402.230 F500.0
G1 X140.058 Y402.685 F500.0
G1 X139.686 Y402.782 F500.0
G1 X127.439 Y402.768 F500.0
G1 X119.439 Y402.759 F500.0
G1 X104.301 Y402.742 F500.0
G1 X100.790 Y402.379 F500.0
G1 X97.392 Y401.676 F500.0
G1 X94.121 Y400.652 F500.0
G1 X90.999 Y399.325 F500.0
G1 X88.042 Y397.711 F500.0
G1 X85.268 Y395.829 F500.0
G1 X82.694 Y393.695 F500.0
G1 X80.335 Y391.328 F500.0
G1 X78.212 Y388.744 F500.0
G1 X76.341 Y385.961 F500.0
G1 X74.740 Y382.996 F500.0
G1 X73.424 Y379.868 F500.0
G1 X72.413 Y376.591 F500.0
G1 X71.726 Y373.188 F500.0
G1 X71.377 Y369.677 F500.0
G1 X71.375 Y359.132 F500.0
G1 X71.374 Y351.132 F500.0
G1 X71.371 Y334.295 F500.0
G1 X71.503 Y333.934 F500.0
G1 X71.757 Y333.583 F500.0
G1 X72.099 Y333.319 F500.0
G1 X72.834 Y333.128 F500.0
G1 X92.390 Y333.166 F500.0
G1 X93.066 Y333.519 F500.0
G1 X93.525 Y334.331 F500.0
G1 X93.595 Y328.285 F500.0
G1 X93.952 Y327.611 F500.0
G1 X94.595 Y327.199 F500.0
G1 X94.973 Y327.130 F500.0
G1 X101.745 Y327.129 F500.0
G1 X109.745 Y327.129 F500.0
G1 X117.326 Y327.128 F500.0
G1 Z-6.200 F150.0
G1 X117.706 Y327.189 F500.0
G1 X118.358 Y327.586 F500.0
G1 X118.731 Y328.252 F500.0
G1 X118.783 Y334.505 F500.0
G1 X119.022 Y333.807 F500.0
G1 X119.589 Y333.295 F500.0
G1 X119.950 Y333.164 F500.0
G1 X139.881 Y333.177 F500.0
G1 X140.238 Y333.322 F500.0
G1 X140.785 Y333.854 F500.0
G1 X140.999 Y334.587 F500.0
G1 X140.972 Y354.137 F500.0
G1 X140.640 Y354.824 F500.0
G1 X139.828 Y355.313 F500.0
G1 X145.795 Y355.379 F500.0
G1 X146.480 Y355.715 F500.0
G1 X146.912 Y356.344 F500.0
G1 X146.994 Y356.719 F500.0
G1 X146.990 Y364.019 F500.0
G1 Z-5.200 F150.0
G1 X146.985 Y372.019 F500.0
G1 Z-6.200 F150.0
G1 X146.980 Y379.312 F500.0
G1 X146.671 Y380.009 F500.0
G1 X146.058 Y380.464 F500.0
G1 X145.686 Y380.560 F500.0
G1 X139.832 Y380.609 F500.0
G1 X140.508 Y380.961 F500.0
G1 X140.758 Y381.254 F500.0
G1 X140.997 Y381.978 F500.0
G1 X140.981 Y401.534 F500.0
G1 X140.671 Y402.230 F500.0
G1 X140.058 Y402.685 F500.0
G1 X139.686 Y402.782 F500.0
G1 X127.439 Y402.768 F500.0
G1 Z-5.200 F150.0
G1 X119.439 Y402.759 F500.0
G1 Z-6.200 F150.0
G1 X104.301 Y402.742 F500.0
G1 X100.790 Y402.379 F500.0
G1 X97.392 Y401.676 F500.0
G1 X94.121 Y400.652 F500.0
G1 X90.999 Y399.325 F500.0
G1 X88.042 Y397.711 F500.0
G1 X85.268 Y395.829 F500.0
G1 X82.694 Y393.695 F500.0
G1 X80.335 Y391.328 F500.0
G1 X78.212 Y388.744 F500.0
G1 X76.341 Y385.961 F500.0
G1 X74.740 Y382.996 F500.0
G1 X73.424 Y379.868 F500.0
G1 X72.413 Y376.591 F500.0
G1 X71.726 Y373.188 F500.0
G1 X71.377 Y369.677 F500.0
G1 X71.375 Y359.132 F500.0
G1 Z-5.200 F150.0
G1 X71.374 Y351.132 F500.0
G1 Z-6.200 F150.0
G1 X71.371 Y334.295 F500.0
G1 X71.503 Y333.934 F500.0
G1 X71.757 Y333.583 F500.0
G1 X72.099 Y333.319 F500.0
G1 X72.834 Y333.128 F500.0
G1 X92.390 Y333.166 F500.0
G1 X93.066 Y333.519 F500.0
G1 X93.525 Y334.331 F500.0
G1 X93.595 Y328.285 F500.0
G1 X93.952 Y327.611 F500.0
G1 X94.595 Y327.199 F500.0
G1 X94.973 Y327.130 F500.0
G1 X101.745 Y327.129 F500.0
G1 Z-5.200 F150.0
G1 X109.745 Y327.129 F500.0
G1 Z-6.200 F150.0
G1 X117.326 Y327.128 F500.0
G1 Z4.000 F150.0
G0 X122.392 Y433.232
G1 Z-3.100 F150.0
G1 X122.743 Y433.583 F500.0
G1 X122.933 Y434.040 F500.0
G1 X122.933 Y434.535 F500.0
G1 X122.744 Y434.990 F500.0
G1 X122.393 Y435.342 F500.0
G1 X121.934 Y435.532 F500.0
G1 X121.440 Y435.532 F500.0
G1 X120.986 Y435.345 F500.0
G1 X120.630 Y434.988 F500.0
G1 X120.442 Y434.535 F500.0
G1 X120.442 Y434.040 F500.0
G1 X120.632 Y433.582 F500.0
G1 X120.985 Y433.230 F500.0
G1 X121.440 Y433.042 F500.0
G1 X121.934 Y433.042 F500.0
G1 X122.392 Y433.232 F500.0
G1 X122.173 Y431.842 F500.0
G1 X123.072 Y432.215 F500.0
G1 X123.760 Y432.902 F500.0
G1 X124.133 Y433.801 F500.0
G1 X124.133 Y434.773 F500.0
G1 X123.761 Y435.670 F500.0
G1 X123.072 Y436.359 F500.0
G1 X122.173 Y436.732 F500.0
G1 X121.202 Y436.732 F500.0
G1 X120.305 Y436.361 F500.0
G1 X119.614 Y435.670 F500.0
G1 X119.242 Y434.773 F500.0
G1 X119.242 Y433.801 F500.0
G1 X119.615 Y432.902 F500.0
G1 X120.305 Y432.213 F500.0
G1 X121.202 Y431.842 F500.0
G1 X122.173 Y431.842 F500.0
G1 X122.392 Y433.232 F500.0
G1 Z-6.200 F150.0
G1 X122.743 Y433.583 F500.0
G1 X122.933 Y434.040 F500.0
G1 X122.933 Y434.535 F500.0
G1 X122.744 Y434.990 F500.0
G1 X122.393 Y435.342 F500.0
G1 X121.934 Y435.532 F500.0
G1 X121.440 Y435.532 F500.0
G1 X120.986 Y435.345 F500.0
G1 X120.630 Y434.988 F500.0
G1 X120.442 Y434.535 F500.0
G1 X120.442 Y434.040 F500.0
G1 X120.632 Y433.582 F500.0
G1 X120.985 Y433.230 F500.0
G1 X121.440 Y433.042 F500.0
G1 X121.934 Y433.042 F500.0
G1 X122.392 Y433.232 F500.0
G1 X122.173 Y431.842 F500.0
G1 X123.072 Y432.215 F500.0
G1 X123.760 Y432.902 F500.0
G1 X124.133 Y433.801 F500.0
G1 X124.133 Y434.773 F500.0
G1 X123.761 Y435.670 F500.0
G1 X123.072 Y436.359 F500.0
G1 X122.173 Y436.732 F500.0
G1 X121.202 Y436.732 F500.0
G1 X120.305 Y436.361 F500.0
G1 X119.614 Y435.670 F500.0
G1 X119.242 Y434.773 F500.0
G1 X119.242 Y433.801 F500.0
G1 X119.615 Y432.902 F500.0
G1 X120.305 Y432.213 F500.0
G1 X121.202 Y431.842 F500.0
G1 X122.173 Y431.842 F500.0
G1 Z4.000 F150.0
G0 X122.913 Y408.817
G1 Z-3.100 F150.0
G1 X125.405 Y409.060 F500.0
G1 X126.454 Y409.267 F500.0
G1 X127.859 Y409.545 F500.0
G1 X130.254 Y410.269 F500.0
G1 X132.568 Y411.225 F500.0
G1 X134.775 Y412.402 F500.0
G1 X136.858 Y413.791 F500.0
G1 X138.793 Y415.375 F500.0
G1 X140.597 Y417.179 F500.0
G1 X142.183 Y419.115 F500.0
G1 X143.572 Y421.197 F500.0
G1 X144.749 Y423.404 F500.0
G1 X145.705 Y425.718 F500.0
G1 X146.429 Y428.113 F500.0
G1 X146.914 Y430.568 F500.0
G1 X146.979 Y431.227 F500.0
G1 X147.158 Y433.058 F500.0
G1 X147.155 Y435.561 F500.0
G1 X146.908 Y438.051 F500.0
G1 X146.682 Y439.184 F500.0
G1 X146.418 Y440.504 F500.0
G1 X145.690 Y442.899 F500.0
G1 X144.729 Y445.210 F500.0
G1 X143.549 Y447.416 F500.0
G1 X142.155 Y449.496 F500.0
G1 X140.567 Y451.428 F500.0
G1 X138.757 Y453.230 F500.0
G1 X136.818 Y454.811 F500.0
G1 X134.734 Y456.195 F500.0
G1 X132.523 Y457.369 F500.0
G1 X130.208 Y458.319 F500.0
G1 X127.812 Y459.039 F500.0
G1 X125.947 Y459.404 F500.0
G1 X125.357 Y459.520 F500.0
G1 X122.865 Y459.758 F500.0
G1 X120.362 Y459.751 F500.0
G1 X117.982 Y459.509 F500.0
G1 X117.873 Y459.498 F500.0
G1 X115.420 Y459.003 F500.0
G1 X113.029 Y458.270 F500.0
G1 X110.720 Y457.305 F500.0
G1 X108.516 Y456.119 F500.0
G1 X106.440 Y454.723 F500.0
G1 X104.510 Y453.130 F500.0
G1 X102.778 Y451.395 F500.0
G1 X101.192 Y449.459 F500.0
G1 X99.804 Y447.377 F500.0
G1 X98.626 Y445.169 F500.0
G1 X97.671 Y442.856 F500.0
G1 X96.947 Y440.461 F500.0
G1 X96.671 Y439.070 F500.0
G1 X96.461 Y438.006 F500.0
G1 X96.217 Y435.516 F500.0
G1 X96.220 Y433.013 F500.0
G1 X96.409 Y431.111 F500.0
G1 X96.467 Y430.523 F500.0
G1 X96.958 Y428.068 F500.0
G1 X97.686 Y425.675 F500.0
G1 X98.645 Y423.364 F500.0
G1 X99.828 Y421.158 F500.0
G1 X101.219 Y419.078 F500.0
G1 X102.808 Y417.146 F500.0
G1 X104.619 Y415.344 F500.0
G1 X106.557 Y413.763 F500.0
G1 X108.642 Y412.378 F500.0
G1 X110.852 Y411.205 F500.0
G1 X113.167 Y410.254 F500.0
G1 X115.563 Y409.535 F500.0
G1 X118.019 Y409.054 F500.0
G1 X118.495 Y409.009 F500.0
G1 X120.510 Y408.816 F500.0
G1 X122.913 Y408.817 F500.0
G1 Z-5.200 F150.0
G1 X125.405 Y409.060 F500.0
G1 X126.454 Y409.267 F500.0
G1 Z-6.200 F150.0
G1 X127.859 Y409.545 F500.0
G1 X130.254 Y410.269 F500.0
G1 X132.568 Y411.225 F500.0
G1 X134.775 Y412.402 F500.0
G1 X136.858 Y413.791 F500.0
G1 X138.793 Y415.375 F500.0
G1 X140.597 Y417.179 F500.0
G1 X142.183 Y419.115 F500.0
G1 X143.572 Y421.197 F500.0
G1 X144.749 Y423.404 F500.0
G1 X145.705 Y425.718 F500.0
G1 X146.429 Y428.113 F500.0
G1 X146.914 Y430.568 F500.0
G1 X146.979 Y431.227 F500.0
G1 Z-5.200 F150.0
G1 X147.158 Y433.058 F500.0
G1 X147.155 Y435.561 F500.0
G1 X146.908 Y438.051 F500.0
G1 X146.682 Y439.184 F500.0
G1 Z-6.200 F150.0
G1 X146.418 Y440.504 F500.0
G1 X145.690 Y442.899 F500.0
G1 X144.729 Y445.210 F500.0
G1 X143.549 Y447.416 F500.0
G1 X142.155 Y449.496 F500.0
G1 X140.567 Y451.428 F500.0
G1 X138.757 Y453.230 F500.0
G1 X136.818 Y454.811 F500.0
G1 X134.734 Y456.195 F500.0
G1 X132.523 Y457.369 F500.0
G1 X130.208 Y458.319 F500.0
G1 X127.812 Y459.039 F500.0
G1 X125.947 Y459.404 F500.0
G1 Z-5.200 F150.0
G1 X125.357 Y459.520 F500.0
G1 X122.865 Y459.758 F500.0
G1 X120.362 Y459.751 F500.0
G1 X117.982 Y459.509 F500.0
G1 Z-6.200 F150.0
G1 X117.873 Y459.498 F500.0
G1 X115.420 Y459.003 F500.0
G1 X113.029 Y458.270 F500.0
G1 X110.720 Y457.305 F500.0
G1 X108.516 Y456.119 F500.0
G1 X106.440 Y454.723 F500.0
G1 X104.510 Y453.130 F500.0
G1 X102.778 Y451.395 F500.0
G1 X101.192 Y449.459 F500.0
G1 X99.804 Y447.377 F500.0
G1 X98.626 Y445.169 F500.0
G1 X97.671 Y442.856 F500.0
G1 X96.947 Y440.461 F500.0
G1 X96.671 Y439.070 F500.0
G1 Z-5.200 F150.0
G1 X96.461 Y438.006 F500.0
G1 X96.217 Y435.516 F500.0
G1 X96.220 Y433.013 F500.0
G1 X96.409 Y431.111 F500.0
G1 Z-6.200 F150.0
G1 X96.467 Y430.523 F500.0
G1 X96.958 Y428.068 F500.0
G1 X97.686 Y425.675 F500.0
G1 X98.645 Y423.364 F500.0
G1 X99.828 Y421.158 F500.0
G1 X101.219 Y419.078 F500.0
G1 X102.808 Y417.146 F500.0
G1 X104.619 Y415.344 F500.0
G1 X106.557 Y413.763 F500.0
G1 X108.642 Y412.378 F500.0
G1 X110.852 Y411.205 F500.0
G1 X113.167 Y410.254 F500.0
G1 X115.563 Y409.535 F500.0
G1 X118.019 Y409.054 F500.0
G1 X118.495 Y409.009 F500.0
G1 Z-5.200 F150.0
G1 X120.510 Y408.816 F500.0
G1 X122.913 Y408.817 F500.0
G1 Z4.000 F150.0
G0 X42.108 Y509.108
G1 Z-3.100 F150.0
G1 X41.431 Y509.112 F500.0
G1 X41.435 Y441.884 F500.0
G1 X42.095 Y441.881 F500.0
G1 X42.108 Y509.108 F500.0
G1 Z4.000 F150.0
G0 X44.636 Y440.669
G1 Z-3.100 F150.0
G1 X43.938 Y440.909 F500.0
G1 X43.426 Y441.475 F500.0
G1 X43.295 Y441.837 F500.0
G1 X43.308 Y509.213 F500.0
G1 X43.452 Y509.570 F500.0
G1 X43.985 Y510.117 F500.0
G1 X44.431 Y510.295 F500.0
G1 X38.899 Y510.325 F500.0
G1 X39.274 Y510.240 F500.0
G1 X39.901 Y509.804 F500.0
G1 X40.231 Y509.115 F500.0
G1 X40.257 Y442.116 F500.0
G1 X40.196 Y441.737 F500.0
G1 X39.799 Y441.085 F500.0
G1 X39.056 Y440.695 F500.0
G1 X44.636 Y440.669 F500.0
G1 Z4.000 F150.0
G0 X42.108 Y509.108
G1 Z-6.200 F150.0
G1 X41.431 Y509.112 F500.0
G1 X41.435 Y441.884 F500.0
G1 X42.095 Y441.881 F500.0
G1 X42.108 Y509.108 F500.0
G1 Z4.000 F150.0
G0 X44.636 Y440.669
G1 Z-6.200 F150.0
G1 X43.938 Y440.909 F500.0
G1 X43.426 Y441.475 F500.0
G1 X43.295 Y441.837 F500.0
G1 X43.308 Y509.213 F500.0
G1 X43.452 Y509.570 F500.0
G1 X43.985 Y510.117 F500.0
G1 X44.431 Y510.295 F500.0
G1 X38.899 Y510.325 F500.0
G1 X39.274 Y510.240 F500.0
G1 X39.901 Y509.804 F500.0
G1 X40.231 Y509.115 F500.0
G1 X40.257 Y442.116 F500.0
G1 X40.196 Y441.737 F500.0
G1 X39.799 Y441.085 F500.0
G1 X39.056 Y440.695 F500.0
G1 X44.636 Y440.669 F500.0
G1 Z4.000 F150.0
G0 X42.088 Y363.292
G1 Z-3.100 F150.0
G1 X42.081 Y363.779 F500.0
G1 X41.411 Y363.782 F500.0
G1 X41.439 Y363.239 F500.0
G1 X42.105 Y363.214 F500.0
G1 X42.088 Y363.292 F500.0
G1 Z4.000 F150.0
G0 X44.636 Y362.003
G1 Z-3.100 F150.0
G1 X43.938 Y362.242 F500.0
G1 X43.426 Y362.809 F500.0
G1 X43.259 Y363.554 F500.0
G1 X43.481 Y364.284 F500.0
G1 X44.033 Y364.811 F500.0
G1 X44.460 Y364.968 F500.0
G1 X38.878 Y364.993 F500.0
G1 X39.576 Y364.755 F500.0
G1 X40.089 Y364.190 F500.0
G1 X40.257 Y363.446 F500.0
G1 X40.038 Y362.715 F500.0
G1 X39.797 Y362.415 F500.0
G1 X39.056 Y362.028 F500.0
G1 X44.636 Y362.003 F500.0
G1 Z4.000 F150.0
G0 X42.088 Y363.292
G1 Z-6.200 F150.0
G1 X42.081 Y363.779 F500.0
G1 X41.411 Y363.782 F500.0
G1 X41.439 Y363.239 F500.0
G1 X42.105 Y363.214 F500.0
G1 X42.088 Y363.292 F500.0
G1 Z4.000 F150.0
G0 X44.636 Y362.003
G1 Z-6.200 F150.0
G1 X43.938 Y362.242 F500.0
G1 X43.426 Y362.809 F500.0
G1 X43.259 Y363.554 F500.0
G1 X43.481 Y364.284 F500.0
G1 X44.033 Y364.811 F500.0
G1 X44.460 Y364.968 F500.0
G1 X38.878 Y364.993 F500.0
G1 X39.576 Y364.755 F500.0
G1 X40.089 Y364.190 F500.0
G1 X40.257 Y363.446 F500.0
G1 X40.038 Y362.715 F500.0
G1 X39.797 Y362.415 F500.0
G1 X39.056 Y362.028 F500.0
G1 X44.636 Y362.003 F500.0
G1 Z4.000 F150.0
G0 X86.481 Y575.816
G1 Z-3.100 F150.0
G1 X69.738 Y575.818 F500.0
G1 X69.700 Y575.183 F500.0
G1 X86.485 Y575.183 F500.0
G1 X86.481 Y575.816 F500.0
G1 X87.702 Y572.639 F500.0
G1 X87.665 Y578.162 F500.0
G1 X87.311 Y577.486 F500.0
G1 X86.670 Y577.073 F500.0
G1 X86.292 Y577.000 F500.0
G1 X69.740 Y577.017 F500.0
G1 X69.043 Y577.327 F500.0
G1 X68.588 Y577.940 F500.0
G1 X68.485 Y578.376 F500.0
G1 X68.511 Y572.796 F500.0
G1 X68.841 Y573.474 F500.0
G1 X69.468 Y573.908 F500.0
G1 X69.844 Y573.992 F500.0
G1 X86.396 Y573.986 F500.0
G1 X87.102 Y573.699 F500.0
G1 X87.378 Y573.431 F500.0
G1 X87.702 Y572.639 F500.0
G1 X86.481 Y575.816 F500.0
G1 Z-6.200 F150.0
G1 X69.738 Y575.818 F500.0
G1 X69.700 Y575.183 F500.0
G1 X86.485 Y575.183 F500.0
G1 X86.481 Y575.816 F500.0
G1 X87.702 Y572.639 F500.0
G1 X87.665 Y578.162 F500.0
G1 X87.311 Y577.486 F500.0
G1 X86.670 Y577.073 F500.0
G1 X86.292 Y577.000 F500.0
G1 X69.740 Y577.017 F500.0
G1 X69.043 Y577.327 F500.0
G1 X68.588 Y577.940 F500.0
G1 X68.485 Y578.376 F500.0
G1 X68.511 Y572.796 F500.0
G1 X68.841 Y573.474 F500.0
G1 X69.468 Y573.908 F500.0
G1 X69.844 Y573.992 F500.0
G1 X86.396 Y573.986 F500.0
G1 X87.102 Y573.699 F500.0
G1 X87.378 Y573.431 F500.0
G1 X87.702 Y572.639 F500.0
G1 Z4.000 F150.0
G0 X50.806 Y352.999
G1 Z-3.100 F150.0
G1 X51.186 Y353.060 F500.0
G1 X51.838 Y353.457 F500.0
G1 X52.211 Y354.123 F500.0
G1 X52.505 Y362.676 F500.0
G1 X52.936 Y368.066 F500.0
G1 X53.576 Y373.386 F500.0
G1 X54.429 Y378.686 F500.0
G1 X55.483 Y383.915 F500.0
G1 X56.734 Y389.057 F500.0
G1 X58.182 Y394.142 F500.0
G1 X59.829 Y399.162 F500.0
G1 X61.661 Y404.096 F500.0
G1 X63.674 Y408.928 F500.0
G1 X65.873 Y413.678 F500.0
G1 X68.261 Y418.357 F500.0
G1 X70.814 Y422.915 F500.0
G1 X72.135 Y425.121 F500.0
G1 X74.957 Y429.540 F500.0
G1 X77.942 Y433.839 F500.0
G1 X81.080 Y438.007 F500.0
G1 X84.368 Y442.044 F500.0
G1 X87.820 Y445.962 F500.0
G1 X91.434 Y449.758 F500.0
G1 X95.186 Y453.406 F500.0
G1 X99.073 Y456.904 F500.0
G1 X103.107 Y460.261 F500.0
G1 X107.306 Y463.486 F500.0
G1 X111.600 Y466.526 F500.0
G1 X116.042 Y469.416 F500.0
G1 X120.614 Y472.140 F500.0
G1 X125.306 Y474.690 F500.0
G1 X130.103 Y477.058 F500.0
G1 X135.044 Y479.256 F500.0
G1 X140.079 Y481.260 F500.0
G1 X145.559 Y483.230 F500.0
G1 X146.079 Y483.789 F500.0
G1 X146.217 Y484.149 F500.0
G1 X146.213 Y524.448 F500.0
G1 X146.213 Y532.448 F500.0
G1 X146.208 Y584.880 F500.0
G1 X146.064 Y585.236 F500.0
G1 X145.531 Y585.784 F500.0
G1 X144.799 Y585.998 F500.0
G1 X82.693 Y585.985 F500.0
G1 X74.693 Y585.983 F500.0
G1 X13.470 Y585.970 F500.0
G1 X12.784 Y585.639 F500.0
G1 X12.349 Y585.012 F500.0
G1 X12.264 Y584.636 F500.0
G1 X12.267 Y481.928 F500.0
G1 X12.267 Y473.928 F500.0
G1 X12.271 Y354.306 F500.0
G1 X12.557 Y353.599 F500.0
G1 X12.826 Y353.323 F500.0
G1 X13.525 Y353.016 F500.0
G1 X28.551 Y353.009 F500.0
G1 X36.551 Y353.005 F500.0
G1 X50.806 Y352.999 F500.0
G1 Z-6.200 F150.0
G1 X51.186 Y353.060 F500.0
G1 X51.838 Y353.457 F500.0
G1 X52.211 Y354.123 F500.0
G1 X52.505 Y362.676 F500.0
G1 X52.936 Y368.066 F500.0
G1 X53.576 Y373.386 F500.0
G1 X54.429 Y378.686 F500.0
G1 X55.483 Y383.915 F500.0
G1 X56.734 Y389.057 F500.0
G1 X58.182 Y394.142 F500.0
G1 X59.829 Y399.162 F500.0
G1 X61.661 Y404.096 F500.0
G1 X63.674 Y408.928 F500.0
G1 X65.873 Y413.678 F500.0
G1 X68.261 Y418.357 F500.0
G1 X70.814 Y422.915 F500.0
G1 X72.135 Y425.121 F500.0
G1 X74.957 Y429.540 F500.0
G1 X77.942 Y433.839 F500.0
G1 X81.080 Y438.007 F500.0
G1 X84.368 Y442.044 F500.0
G1 X87.820 Y445.962 F500.0
G1 X91.434 Y449.758 F500.0
G1 X95.186 Y453.406 F500.0
G1 X99.073 Y456.904 F500.0
G1 X103.107 Y460.261 F500.0
G1 X107.306 Y463.486 F500.0
G1 X111.600 Y466.526 F500.0
G1 X116.042 Y469.416 F500.0
G1 X120.614 Y472.140 F500.0
G1 X125.306 Y474.690 F500.0
G1 X130.103 Y477.058 F500.0
G1 X135.044 Y479.256 F500.0
G1 X140.079 Y481.260 F500.0
G1 X145.559 Y483.230 F500.0
G1 X146.079 Y483.789 F500.0
G1 X146.217 Y484.149 F500.0
G1 X146.213 Y524.448 F500.0
G1 Z-5.200 F150.0
G1 X146.213 Y532.448 F500.0
G1 Z-6.200 F150.0
G1 X146.208 Y584.880 F500.0
G1 X146.064 Y585.236 F500.0
G1 X145.531 Y585.784 F500.0
G1 X144.799 Y585.998 F500.0
G1 X82.693 Y585.985 F500.0
G1 Z-5.200 F150.0
G1 X74.693 Y585.983 F500.0
G1 Z-6.200 F150.0
G1 X13.470 Y585.970 F500.0
G1 X12.784 Y585.639 F500.0
G1 X12.349 Y585.012 F500.0
G1 X12.264 Y584.636 F500.0
G1 X12.267 Y481.928 F500.0
G1 Z-5.200 F150.0
G1 X12.267 Y473.928 F500.0
G1 Z-6.200 F150.0
G1 X12.271 Y354.306 F500.0
G1 X12.557 Y353.599 F500.0
G1 X12.826 Y353.323 F500.0
G1 X13.525 Y353.016 F500.0
G1 X28.551 Y353.009 F500.0
G1 Z-5.200 F150.0
G1 X36.551 Y353.005 F500.0
G1 Z-6.200 F150.0
G1 X50.806 Y352.999 F500.0
G1 Z4.000 F150.0
G0 X179.015 Y433.230
G1 Z-3.100 F150.0
G1 X179.368 Y433.582 F500.0
G1 X179.556 Y434.038 F500.0
G1 X179.557 Y434.537 F500.0
G1 X179.370 Y434.988 F500.0
G1 X179.014 Y435.345 F500.0
G1 X178.560 Y435.532 F500.0
G1 X178.064 Y435.532 F500.0
G1 X177.611 Y435.345 F500.0
G1 X177.254 Y434.988 F500.0
G1 X177.067 Y434.537 F500.0
G1 X177.068 Y434.038 F500.0
G1 X177.257 Y433.582 F500.0
G1 X177.609 Y433.230 F500.0
G1 X178.064 Y433.042 F500.0
G1 X178.560 Y433.042 F500.0
G1 X179.015 Y433.230 F500.0
G1 X178.798 Y431.842 F500.0
G1 X179.695 Y432.213 F500.0
G1 X180.385 Y432.902 F500.0
G1 X180.756 Y433.799 F500.0
G1 X180.757 Y434.774 F500.0
G1 X180.387 Y435.670 F500.0
G1 X179.695 Y436.361 F500.0
G1 X178.798 Y436.732 F500.0
G1 X177.826 Y436.732 F500.0
G1 X176.930 Y436.361 F500.0
G1 X176.238 Y435.670 F500.0
G1 X175.868 Y434.774 F500.0
G1 X175.868 Y433.799 F500.0
G1 X176.240 Y432.902 F500.0
G1 X176.930 Y432.213 F500.0
G1 X177.826 Y431.842 F500.0
G1 X178.798 Y431.842 F500.0
G1 X179.015 Y433.230 F500.0
G1 Z-6.200 F150.0
G1 X179.368 Y433.582 F500.0
G1 X179.556 Y434.038 F500.0
G1 X179.557 Y434.537 F500.0
G1 X179.370 Y434.988 F500.0
G1 X179.014 Y435.345 F500.0
G1 X178.560 Y435.532 F500.0
G1 X178.064 Y435.532 F500.0
G1 X177.611 Y435.345 F500.0
G1 X177.254 Y434.988 F500.0
G1 X177.067 Y434.537 F500.0
G1 X177.068 Y434.038 F500.0
G1 X177.257 Y433.582 F500.0
G1 X177.609 Y433.230 F500.0
G1 X178.064 Y433.042 F500.0
G1 X178.560 Y433.042 F500.0
G1 X179.015 Y433.230 F500.0
G1 X178.798 Y431.842 F500.0
G1 X179.695 Y432.213 F500.0
G1 X180.385 Y432.902 F500.0
G1 X180.756 Y433.799 F500.0
G1 X180.757 Y434.774 F500.0
G1 X180.387 Y435.670 F500.0
G1 X179.695 Y436.361 F500.0
G1 X178.798 Y436.732 F500.0
G1 X177.826 Y436.732 F500.0
G1 X176.930 Y436.361 F500.0
G1 X176.238 Y435.670 F500.0
G1 X175.868 Y434.774 F500.0
G1 X175.868 Y433.799 F500.0
G1 X176.240 Y432.902 F500.0
G1 X176.930 Y432.213 F500.0
G1 X177.826 Y431.842 F500.0
G1 X178.798 Y431.842 F500.0
G1 Z4.000 F150.0
G0 X179.538 Y408.817
G1 Z-3.100 F150.0
G1 X182.029 Y409.060 F500.0
G1 X182.767 Y409.205 F500.0
G1 X184.483 Y409.545 F500.0
G1 X186.879 Y410.269 F500.0
G1 X189.192 Y411.225 F500.0
G1 X191.400 Y412.401 F500.0
G1 X193.483 Y413.791 F500.0
G1 X195.418 Y415.375 F500.0
G1 X197.190 Y417.144 F500.0
G1 X198.779 Y419.076 F500.0
G1 X200.172 Y421.156 F500.0
G1 X201.353 Y423.361 F500.0
G1 X202.313 Y425.672 F500.0
G1 X203.042 Y428.066 F500.0
G1 X203.533 Y430.520 F500.0
G1 X203.614 Y431.333 F500.0
G1 X203.781 Y433.010 F500.0
G1 X203.783 Y435.513 F500.0
G1 X203.540 Y438.003 F500.0
G1 X203.286 Y439.288 F500.0
G1 X203.054 Y440.458 F500.0
G1 X202.330 Y442.854 F500.0
G1 X201.375 Y445.167 F500.0
G1 X200.198 Y447.374 F500.0
G1 X198.810 Y449.456 F500.0
G1 X197.224 Y451.393 F500.0
G1 X195.456 Y453.164 F500.0
G1 X193.523 Y454.754 F500.0
G1 X191.444 Y456.146 F500.0
G1 X189.238 Y457.328 F500.0
G1 X186.927 Y458.288 F500.0
G1 X184.533 Y459.016 F500.0
G1 X182.290 Y459.465 F500.0
G1 X182.079 Y459.507 F500.0
G1 X179.589 Y459.755 F500.0
G1 X177.087 Y459.757 F500.0
G1 X174.596 Y459.515 F500.0
G1 X174.323 Y459.461 F500.0
G1 X172.141 Y459.029 F500.0
G1 X169.745 Y458.305 F500.0
G1 X167.433 Y457.350 F500.0
G1 X165.224 Y456.171 F500.0
G1 X163.143 Y454.784 F500.0
G1 X161.206 Y453.199 F500.0
G1 X159.435 Y451.430 F500.0
G1 X157.846 Y449.497 F500.0
G1 X156.453 Y447.418 F500.0
G1 X155.272 Y445.212 F500.0
G1 X154.312 Y442.902 F500.0
G1 X153.583 Y440.507 F500.0
G1 X153.333 Y439.258 F500.0
G1 X153.092 Y438.053 F500.0
G1 X152.844 Y435.564 F500.0
G1 X152.842 Y433.061 F500.0
G1 X153.013 Y431.302 F500.0
G1 X153.084 Y430.570 F500.0
G1 X153.570 Y428.116 F500.0
G1 X154.294 Y425.721 F500.0
G1 X155.250 Y423.407 F500.0
G1 X156.428 Y421.199 F500.0
G1 X157.815 Y419.117 F500.0
G1 X159.434 Y417.145 F500.0
G1 X161.204 Y415.378 F500.0
G1 X163.140 Y413.792 F500.0
G1 X165.222 Y412.404 F500.0
G1 X167.431 Y411.225 F500.0
G1 X169.743 Y410.270 F500.0
G1 X172.138 Y409.546 F500.0
G1 X174.594 Y409.060 F500.0
G1 X174.804 Y409.040 F500.0
G1 X177.084 Y408.817 F500.0
G1 X179.538 Y408.817 F500.0
G1 Z-5.200 F150.0
G1 X182.029 Y409.060 F500.0
G1 X182.767 Y409.205 F500.0
G1 Z-6.200 F150.0
G1 X184.483 Y409.545 F500.0
G1 X186.879 Y410.269 F500.0
G1 X189.192 Y411.225 F500.0
G1 X191.400 Y412.401 F500.0
G1 X193.483 Y413.791 F500.0
G1 X195.418 Y415.375 F500.0
G1 X197.190 Y417.144 F500.0
G1 X198.779 Y419.076 F500.0
G1 X200.172 Y421.156 F500.0
G1 X201.353 Y423.361 F500.0
G1 X202.313 Y425.672 F500.0
G1 X203.042 Y428.066 F500.0
G1 X203.533 Y430.520 F500.0
G1 X203.614 Y431.333 F500.0
G1 Z-5.200 F150.0
G1 X203.781 Y433.010 F500.0
G1 X203.783 Y435.513 F500.0
G1 X203.540 Y438.003 F500.0
G1 X203.286 Y439.288 F500.0
G1 Z-6.200 F150.0
G1 X203.054 Y440.458 F500.0
G1 X202.330 Y442.854 F500.0
G1 X201.375 Y445.167 F500.0
G1 X200.198 Y447.374 F500.0
G1 X198.810 Y449.456 F500.0
G1 X197.224 Y451.393 F500.0
G1 X195.456 Y453.164 F500.0
G1 X193.523 Y454.754 F500.0
G1 X191.444 Y456.146 F500.0
G1 X189.238 Y457.328 F500.0
G1 X186.927 Y458.288 F500.0
G1 X184.533 Y459.016 F500.0
G1 X182.290 Y459.465 F500.0
G1 Z-5.200 F150.0
G1 X182.079 Y459.507 F500.0
G1 X179.589 Y459.755 F500.0
G1 X177.087 Y459.757 F500.0
G1 X174.596 Y459.515 F500.0
G1 X174.323 Y459.461 F500.0
G1 Z-6.200 F150.0
G1 X172.141 Y459.029 F500.0
G1 X169.745 Y458.305 F500.0
G1 X167.433 Y457.350 F500.0
G1 X165.224 Y456.171 F500.0
G1 X163.143 Y454.784 F500.0
G1 X161.206 Y453.199 F500.0
G1 X159.435 Y451.430 F500.0
G1 X157.846 Y449.497 F500.0
G1 X156.453 Y447.418 F500.0
G1 X155.272 Y445.212 F500.0
G1 X154.312 Y442.902 F500.0
G1 X153.583 Y440.507 F500.0
G1 X153.333 Y439.258 F500.0
G1 Z-5.200 F150.0
G1 X153.092 Y438.053 F500.0
G1 X152.844 Y435.564 F500.0
G1 X152.842 Y433.061 F500.0
G1 X153.013 Y431.302 F500.0
G1 Z-6.200 F150.0
G1 X153.084 Y430.570 F500.0
G1 X153.570 Y428.116 F500.0
G1 X154.294 Y425.721 F500.0
G1 X155.250 Y423.407 F500.0
G1 X156.428 Y421.199 F500.0
G1 X157.815 Y419.117 F500.0
G1 X159.434 Y417.145 F500.0
G1 X161.204 Y415.378 F500.0
G1 X163.140 Y413.792 F500.0
G1 X165.222 Y412.404 F500.0
G1 X167.431 Y411.225 F500.0
G1 X169.743 Y410.270 F500.0
G1 X172.138 Y409.546 F500.0
G1 X174.594 Y409.060 F500.0
G1 X174.804 Y409.040 F500.0
G1 Z-5.200 F150.0
G1 X177.084 Y408.817 F500.0
G1 X179.538 Y408.817 F500.0
G1 Z4.000 F150.0
G0 X194.537 Y366.905
G1 Z-3.100 F150.0
G1 X194.891 Y367.259 F500.0
G1 X195.078 Y367.711 F500.0
G1 X195.078 Y368.210 F500.0
G1 X194.891 Y368.662 F500.0
G1 X194.535 Y369.019 F500.0
G1 X194.083 Y369.205 F500.0
G1 X193.584 Y369.205 F500.0
G1 X193.132 Y369.019 F500.0
G1 X192.777 Y368.664 F500.0
G1 X192.588 Y368.207 F500.0
G1 X192.588 Y367.714 F500.0
G1 X192.777 Y367.257 F500.0
G1 X193.129 Y366.905 F500.0
G1 X193.587 Y366.716 F500.0
G1 X194.080 Y366.716 F500.0
G1 X194.537 Y366.905 F500.0
G1 X194.319 Y365.516 F500.0
G1 X195.217 Y365.887 F500.0
G1 X195.907 Y366.578 F500.0
G1 X196.278 Y367.473 F500.0
G1 X196.278 Y368.448 F500.0
G1 X195.907 Y369.343 F500.0
G1 X195.216 Y370.035 F500.0
G1 X194.321 Y370.405 F500.0
G1 X193.346 Y370.405 F500.0
G1 X192.450 Y370.035 F500.0
G1 X191.760 Y369.344 F500.0
G1 X191.388 Y368.447 F500.0
G1 X191.388 Y367.474 F500.0
G1 X191.760 Y366.577 F500.0
G1 X192.449 Y365.887 F500.0
G1 X193.347 Y365.516 F500.0
G1 X194.319 Y365.516 F500.0
G1 X194.537 Y366.905 F500.0
G1 Z-6.200 F150.0
G1 X194.891 Y367.259 F500.0
G1 X195.078 Y367.711 F500.0
G1 X195.078 Y368.210 F500.0
G1 X194.891 Y368.662 F500.0
G1 X194.535 Y369.019 F500.0
G1 X194.083 Y369.205 F500.0
G1 X193.584 Y369.205 F500.0
G1 X193.132 Y369.019 F500.0
G1 X192.777 Y368.664 F500.0
G1 X192.588 Y368.207 F500.0
G1 X192.588 Y367.714 F500.0
G1 X192.777 Y367.257 F500.0
G1 X193.129 Y366.905 F500.0
G1 X193.587 Y366.716 F500.0
G1 X194.080 Y366.716 F500.0
G1 X194.537 Y366.905 F500.0
G1 X194.319 Y365.516 F500.0
G1 X195.217 Y365.887 F500.0
G1 X195.907 Y366.578 F500.0
G1 X196.278 Y367.473 F500.0
G1 X196.278 Y368.448 F500.0
G1 X195.907 Y369.343 F500.0
G1 X195.216 Y370.035 F500.0
G1 X194.321 Y370.405 F500.0
G1 X193.346 Y370.405 F500.0
G1 X192.450 Y370.035 F500.0
G1 X191.760 Y369.344 F500.0
G1 X191.388 Y368.447 F500.0
G1 X191.388 Y367.474 F500.0
G1 X191.760 Y366.577 F500.0
G1 X192.449 Y365.887 F500.0
G1 X193.347 Y365.516 F500.0
G1 X194.319 Y365.516 F500.0
G1 Z4.000 F150.0
G0 X204.992 Y327.128
G1 Z-3.100 F150.0
G1 X205.372 Y327.189 F500.0
G1 X206.024 Y327.586 F500.0
G1 X206.397 Y328.252 F500.0
G1 X206.449 Y334.507 F500.0
G1 X206.687 Y333.810 F500.0
G1 X207.252 Y333.297 F500.0
G1 X207.613 Y333.165 F500.0
G1 X227.548 Y333.177 F500.0
G1 X227.905 Y333.322 F500.0
G1 X228.452 Y333.854 F500.0
G1 X228.666 Y334.587 F500.0
G1 X228.649 Y347.944 F500.0
G1 X228.638 Y355.944 F500.0
G1 X228.620 Y369.774 F500.0
G1 X228.262 Y373.284 F500.0
G1 X227.564 Y376.686 F500.0
G1 X226.544 Y379.958 F500.0
G1 X225.220 Y383.084 F500.0
G1 X223.610 Y386.044 F500.0
G1 X221.731 Y388.822 F500.0
G1 X219.600 Y391.400 F500.0
G1 X217.201 Y393.791 F500.0
G1 X214.616 Y395.914 F500.0
G1 X211.834 Y397.787 F500.0
G1 X208.869 Y399.388 F500.0
G1 X205.739 Y400.703 F500.0
G1 X202.464 Y401.713 F500.0
G1 X199.061 Y402.402 F500.0
G1 X195.550 Y402.750 F500.0
G1 X184.899 Y402.752 F500.0
G1 X176.899 Y402.753 F500.0
G1 X160.168 Y402.756 F500.0
G1 X159.807 Y402.623 F500.0
G1 X159.455 Y402.370 F500.0
G1 X159.192 Y402.027 F500.0
G1 X159.000 Y401.293 F500.0
G1 X159.038 Y381.736 F500.0
G1 X159.392 Y381.060 F500.0
G1 X160.200 Y380.602 F500.0
G1 X154.157 Y380.532 F500.0
G1 X153.483 Y380.174 F500.0
G1 X153.072 Y379.531 F500.0
G1 X153.002 Y379.153 F500.0
G1 X153.010 Y372.122 F500.0
G1 X153.019 Y364.122 F500.0
G1 X153.028 Y356.562 F500.0
G1 X153.360 Y355.875 F500.0
G1 X153.987 Y355.440 F500.0
G1 X154.362 Y355.356 F500.0
G1 X160.202 Y355.319 F500.0
G1 X159.527 Y354.992 F500.0
G1 X159.092 Y354.365 F500.0
G1 X159.007 Y353.990 F500.0
G1 X159.013 Y334.435 F500.0
G1 X159.300 Y333.728 F500.0
G1 X159.568 Y333.453 F500.0
G1 X160.267 Y333.146 F500.0
G1 X179.818 Y333.131 F500.0
G1 X180.542 Y333.372 F500.0
G1 X180.835 Y333.621 F500.0
G1 X181.186 Y334.300 F500.0
G1 X181.252 Y328.332 F500.0
G1 X181.587 Y327.647 F500.0
G1 X182.217 Y327.215 F500.0
G1 X182.592 Y327.133 F500.0
G1 X189.699 Y327.131 F500.0
G1 X197.699 Y327.130 F500.0
G1 X204.992 Y327.128 F500.0
G1 Z-6.200 F150.0
G1 X205.372 Y327.189 F500.0
G1 X206.024 Y327.586 F500.0
G1 X206.397 Y328.252 F500.0
G1 X206.449 Y334.507 F500.0
G1 X206.687 Y333.810 F500.0
G1 X207.252 Y333.297 F500.0
G1 X207.613 Y333.165 F500.0
G1 X227.548 Y333.177 F500.0
G1 X227.905 Y333.322 F500.0
G1 X228.452 Y333.854 F500.0
G1 X228.666 Y334.587 F500.0
G1 X228.649 Y347.944 F500.0
G1 Z-5.200 F150.0
G1 X228.638 Y355.944 F500.0
G1 Z-6.200 F150.0
G1 X228.620 Y369.774 F500.0
G1 X228.262 Y373.284 F500.0
G1 X227.564 Y376.686 F500.0
G1 X226.544 Y379.958 F500.0
G1 X225.220 Y383.084 F500.0
G1 X223.610 Y386.044 F500.0
G1 X221.731 Y388.822 F500.0
G1 X219.600 Y391.400 F500.0
G1 X217.201 Y393.791 F500.0
G1 X214.616 Y395.914 F500.0
G1 X211.834 Y397.787 F500.0
G1 X208.869 Y399.388 F500.0
G1 X205.739 Y400.703 F500.0
G1 X202.464 Y401.713 F500.0
G1 X199.061 Y402.402 F500.0
G1 X195.550 Y402.750 F500.0
G1 X184.899 Y402.752 F500.0
G1 Z-5.200 F150.0
G1 X176.899 Y402.753 F500.0
G1 Z-6.200 F150.0
G1 X160.168 Y402.756 F500.0
G1 X159.807 Y402.623 F500.0
G1 X159.455 Y402.370 F500.0
G1 X159.192 Y402.027 F500.0
G1 X159.000 Y401.293 F500.0
G1 X159.038 Y381.736 F500.0
G1 X159.392 Y381.060 F500.0
G1 X160.200 Y380.602 F500.0
G1 X154.157 Y380.532 F500.0
G1 X153.483 Y380.174 F500.0
G1 X153.072 Y379.531 F500.0
G1 X153.002 Y379.153 F500.0
G1 X153.010 Y372.122 F500.0
G1 Z-5.200 F150.0
G1 X153.019 Y364.122 F500.0
G1 Z-6.200 F150.0
G1 X153.028 Y356.562 F500.0
G1 X153.360 Y355.875 F500.0
G1 X153.987 Y355.440 F500.0
G1 X154.362 Y355.356 F500.0
G1 X160.202 Y355.319 F500.0
G1 X159.527 Y354.992 F500.0
G1 X159.092 Y354.365 F500.0
G1 X159.007 Y353.990 F500.0
G1 X159.013 Y334.435 F500.0
G1 X159.300 Y333.728 F500.0
G1 X159.568 Y333.453 F500.0
G1 X160.267 Y333.146 F500.0
G1 X179.818 Y333.131 F500.0
G1 X180.542 Y333.372 F500.0
G1 X180.835 Y333.621 F500.0
G1 X181.186 Y334.300 F500.0
G1 X181.252 Y328.332 F500.0
G1 X181.587 Y327.647 F500.0
G1 X182.217 Y327.215 F500.0
G1 X182.592 Y327.133 F500.0
G1 X189.699 Y327.131 F500.0
G1 Z-5.200 F150.0
G1 X197.699 Y327.130 F500.0
G1 Z-6.200 F150.0
G1 X204.992 Y327.128 F500.0
G1 Z4.000 F150.0
G0 X230.067 Y575.197
G1 Z-3.100 F150.0
G1 X230.259 Y575.182 F500.0
G1 X230.304 Y575.835 F500.0
G1 X213.521 Y575.848 F500.0
G1 X213.517 Y575.172 F500.0
G1 X230.067 Y575.197 F500.0
G1 Z4.000 F150.0
G0 X212.304 Y572.643
G1 Z-3.100 F150.0
G1 X212.568 Y573.359 F500.0
G1 X213.151 Y573.852 F500.0
G1 X213.516 Y573.972 F500.0
G1 X230.068 Y573.998 F500.0
G1 X230.448 Y573.936 F500.0
G1 X231.100 Y573.539 F500.0
G1 X231.490 Y572.796 F500.0
G1 X231.515 Y578.378 F500.0
G1 X231.277 Y577.680 F500.0
G1 X230.712 Y577.167 F500.0
G1 X230.351 Y577.035 F500.0
G1 X213.416 Y577.048 F500.0
G1 X213.059 Y577.192 F500.0
G1 X212.512 Y577.724 F500.0
G1 X212.334 Y578.170 F500.0
G1 X212.304 Y572.643 F500.0
G1 Z4.000 F150.0
G0 X230.067 Y575.197
G1 Z-6.200 F150.0
G1 X230.259 Y575.182 F500.0
G1 X230.304 Y575.835 F500.0
G1 X213.521 Y575.848 F500.0
G1 X213.517 Y575.172 F500.0
G1 X230.067 Y575.197 F500.0
G1 Z4.000 F150.0
G0 X212.304 Y572.643
G1 Z-6.200 F150.0
G1 X212.568 Y573.359 F500.0
G1 X213.151 Y573.852 F500.0
G1 X213.516 Y573.972 F500.0
G1 X230.068 Y573.998 F500.0
G1 X230.448 Y573.936 F500.0
G1 X231.100 Y573.539 F500.0
G1 X231.490 Y572.796 F500.0
G1 X231.515 Y578.378 F500.0
G1 X231.277 Y577.680 F500.0
G1 X230.712 Y577.167 F500.0
G1 X230.351 Y577.035 F500.0
G1 X213.416 Y577.048 F500.0
G1 X213.059 Y577.192 F500.0
G1 X212.512 Y577.724 F500.0
G1 X212.334 Y578.170 F500.0
G1 X212.304 Y572.643 F500.0
G1 Z4.000 F150.0
G0 X258.558 Y441.884
G1 Z-3.100 F150.0
G1 X258.558 Y509.114 F500.0
G1 X257.928 Y509.083 F500.0
G1 X257.921 Y441.881 F500.0
G1 X258.558 Y441.884 F500.0
G1 Z4.000 F150.0
G0 X260.944 Y440.695
G1 Z-3.100 F150.0
G1 X260.266 Y441.025 F500.0
G1 X259.832 Y441.653 F500.0
G1 X259.748 Y442.028 F500.0
G1 X259.755 Y509.024 F500.0
G1 X260.041 Y509.731 F500.0
G1 X260.310 Y510.007 F500.0
G1 X261.101 Y510.331 F500.0
G1 X255.577 Y510.294 F500.0
G1 X256.253 Y509.939 F500.0
G1 X256.502 Y509.646 F500.0
G1 X256.739 Y508.920 F500.0
G1 X256.722 Y441.924 F500.0
G1 X256.413 Y441.227 F500.0
G1 X255.800 Y440.772 F500.0
G1 X255.364 Y440.669 F500.0
G1 X260.944 Y440.695 F500.0
G1 Z4.000 F150.0
G0 X258.558 Y441.884
G1 Z-6.200 F150.0
G1 X258.558 Y509.114 F500.0
G1 X257.928 Y509.083 F500.0
G1 X257.921 Y441.881 F500.0
G1 X258.558 Y441.884 F500.0
G1 Z4.000 F150.0
G0 X260.944 Y440.695
G1 Z-6.200 F150.0
G1 X260.266 Y441.025 F500.0
G1 X259.832 Y441.653 F500.0
G1 X259.748 Y442.028 F500.0
G1 X259.755 Y509.024 F500.0
G1 X260.041 Y509.731 F500.0
G1 X260.310 Y510.007 F500.0
G1 X261.101 Y510.331 F500.0
G1 X255.577 Y510.294 F500.0
G1 X256.253 Y509.939 F500.0
G1 X256.502 Y509.646 F500.0
G1 X256.739 Y508.920 F500.0
G1 X256.722 Y441.924 F500.0
G1 X256.413 Y441.227 F500.0
G1 X255.800 Y440.772 F500.0
G1 X255.364 Y440.669 F500.0
G1 X260.944 Y440.695 F500.0
G1 Z4.000 F150.0
G0 X258.606 Y363.217
G1 Z-3.100 F150.0
G1 X258.563 Y363.767 F500.0
G1 X257.878 Y363.779 F500.0
G1 X257.921 Y363.229 F500.0
G1 X258.606 Y363.217 F500.0
G1 Z4.000 F150.0
G0 X260.944 Y362.028
G1 Z-3.100 F150.0
G1 X260.266 Y362.359 F500.0
G1 X259.832 Y362.986 F500.0
G1 X259.763 Y363.746 F500.0
G1 X260.076 Y364.442 F500.0
G1 X260.692 Y364.893 F500.0
G1 X261.121 Y364.993 F500.0
G1 X255.540 Y364.968 F500.0
G1 X256.218 Y364.637 F500.0
G1 X256.652 Y364.010 F500.0
G1 X256.721 Y363.250 F500.0
G1 X256.408 Y362.554 F500.0
G1 X255.792 Y362.103 F500.0
G1 X255.364 Y362.003 F500.0
G1 X260.944 Y362.028 F500.0
G1 Z4.000 F150.0
G0 X258.606 Y363.217
G1 Z-6.200 F150.0
G1 X258.563 Y363.767 F500.0
G1 X257.878 Y363.779 F500.0
G1 X257.921 Y363.229 F500.0
G1 X258.606 Y363.217 F500.0
G1 Z4.000 F150.0
G0 X260.944 Y362.028
G1 Z-6.200 F150.0
G1 X260.266 Y362.359 F500.0
G1 X259.832 Y362.986 F500.0
G1 X259.763 Y363.746 F500.0
G1 X260.076 Y364.442 F500.0
G1 X260.692 Y364.893 F500.0
G1 X261.121 Y364.993 F500.0
G1 X255.540 Y364.968 F500.0
G1 X256.218 Y364.637 F500.0
G1 X256.652 Y364.010 F500.0
G1 X256.721 Y363.250 F500.0
G1 X256.408 Y362.554 F500.0
G1 X255.792 Y362.103 F500.0
G1 X255.364 Y362.003 F500.0
G1 X260.944 Y362.028 F500.0
G1 Z4.000 F150.0
G0 X286.290 Y352.999
G1 Z-3.100 F150.0
G1 X286.670 Y353.060 F500.0
G1 X287.322 Y353.457 F500.0
G1 X287.695 Y354.123 F500.0
G1 X287.701 Y496.098 F500.0
G1 X287.701 Y504.098 F500.0
G1 X287.704 Y584.833 F500.0
G1 X287.351 Y585.509 F500.0
G1 X286.710 Y585.924 F500.0
G1 X286.332 Y585.996 F500.0
G1 X224.769 Y585.988 F500.0
G1 X216.769 Y585.987 F500.0
G1 X155.001 Y585.979 F500.0
G1 X154.305 Y585.670 F500.0
G1 X153.850 Y585.057 F500.0
G1 X153.753 Y584.684 F500.0
G1 X153.751 Y537.937 F500.0
G1 X153.751 Y529.937 F500.0
G1 X153.749 Y484.354 F500.0
G1 X154.013 Y483.638 F500.0
G1 X154.272 Y483.353 F500.0
G1 X154.595 Y483.145 F500.0
G1 X159.914 Y481.262 F500.0
G1 X164.961 Y479.253 F500.0
G1 X169.898 Y477.058 F500.0
G1 X174.695 Y474.690 F500.0
G1 X179.386 Y472.140 F500.0
G1 X183.958 Y469.416 F500.0
G1 X188.400 Y466.526 F500.0
G1 X192.694 Y463.486 F500.0
G1 X196.880 Y460.270 F500.0
G1 X200.944 Y456.890 F500.0
G1 X204.815 Y453.406 F500.0
G1 X208.566 Y449.758 F500.0
G1 X212.179 Y445.962 F500.0
G1 X215.632 Y442.043 F500.0
G1 X218.921 Y438.007 F500.0
G1 X222.066 Y433.830 F500.0
G1 X225.036 Y429.550 F500.0
G1 X227.851 Y425.144 F500.0
G1 X230.493 Y420.632 F500.0
G1 X232.953 Y416.034 F500.0
G1 X235.245 Y411.324 F500.0
G1 X237.360 Y406.510 F500.0
G1 X239.275 Y401.651 F500.0
G1 X241.022 Y396.652 F500.0
G1 X242.563 Y391.617 F500.0
G1 X243.917 Y386.492 F500.0
G1 X245.071 Y381.299 F500.0
G1 X246.024 Y376.044 F500.0
G1 X246.769 Y370.733 F500.0
G1 X247.306 Y365.386 F500.0
G1 X247.632 Y359.954 F500.0
G1 X247.787 Y354.133 F500.0
G1 X247.928 Y353.775 F500.0
G1 X248.453 Y353.222 F500.0
G1 X249.182 Y352.999 F500.0
G1 X263.316 Y352.999 F500.0
G1 X271.316 Y352.999 F500.0
G1 X286.290 Y352.999 F500.0
G1 Z-6.200 F150.0
G1 X286.670 Y353.060 F500.0
G1 X287.322 Y353.457 F500.0
G1 X287.695 Y354.123 F500.0
G1 X287.701 Y496.098 F500.0
G1 Z-5.200 F150.0
G1 X287.701 Y504.098 F500.0
G1 Z-6.200 F150.0
G1 X287.704 Y584.833 F500.0
G1 X287.351 Y585.509 F500.0
G1 X286.710 Y585.924 F500.0
G1 X286.332 Y585.996 F500.0
G1 X224.769 Y585.988 F500.0
G1 Z-5.200 F150.0
G1 X216.769 Y585.987 F500.0
G1 Z-6.200 F150.0
G1 X155.001 Y585.979 F500.0
G1 X154.305 Y585.670 F500.0
G1 X153.850 Y585.057 F500.0
G1 X153.753 Y584.684 F500.0
G1 X153.751 Y537.937 F500.0
G1 Z-5.200 F150.0
G1 X153.751 Y529.937 F500.0
G1 Z-6.200 F150.0
G1 X153.749 Y484.354 F500.0
G1 X154.013 Y483.638 F500.0
G1 X154.272 Y483.353 F500.0
G1 X154.595 Y483.145 F500.0
G1 X159.914 Y481.262 F500.0
G1 X164.961 Y479.253 F500.0
G1 X169.898 Y477.058 F500.0
G1 X174.695 Y474.690 F500.0
G1 X179.386 Y472.140 F500.0
G1 X183.958 Y469.416 F500.0
G1 X188.400 Y466.526 F500.0
G1 X192.694 Y463.486 F500.0
G1 X196.880 Y460.270 F500.0
G1 X200.944 Y456.890 F500.0
G1 X204.815 Y453.406 F500.0
G1 X208.566 Y449.758 F500.0
G1 X212.179 Y445.962 F500.0
G1 X215.632 Y442.043 F500.0
G1 X218.921 Y438.007 F500.0
G1 X222.066 Y433.830 F500.0
G1 X225.036 Y429.550 F500.0
G1 X227.851 Y425.144 F500.0
G1 X230.493 Y420.632 F500.0
G1 X232.953 Y416.034 F500.0
G1 X235.245 Y411.324 F500.0
G1 X237.360 Y406.510 F500.0
G1 X239.275 Y401.651 F500.0
G1 X241.022 Y396.652 F500.0
G1 X242.563 Y391.617 F500.0
G1 X243.917 Y386.492 F500.0
G1 X245.071 Y381.299 F500.0
G1 X246.024 Y376.044 F500.0
G1 X246.769 Y370.733 F500.0
G1 X247.306 Y365.386 F500.0
G1 X247.632 Y359.954 F500.0
G1 X247.787 Y354.133 F500.0
G1 X247.928 Y353.775 F500.0
G1 X248.453 Y353.222 F500.0
G1 X249.182 Y352.999 F500.0
G1 X263.316 Y352.999 F500.0
G1 Z-5.200 F150.0
G1 X271.316 Y352.999 F500.0
G1 Z-6.200 F150.0
G1 X286.290 Y352.999 F500.0
G21
G90
G1 Z4.000 F150.0
G0 X0.000 Y0.000
G4 P0.1
%